﻿<?xml version="1.0" encoding="utf-8"?>
<COLLADA xmlns:xsi="http://www.w3.org/2001/XMLSchema-instance" xmlns:xsd="http://www.w3.org/2001/XMLSchema" version="1.4.1" xmlns="http://www.collada.org/2005/11/COLLADASchema">
  <asset>
    <created>0001-01-01T00:00:00</created>
    <modified>0001-01-01T00:00:00</modified>
    <unit name="meter" meter="1"/>
<up_axis>Y_UP</up_axis>

  </asset>
  <library_images />
  <library_materials>
    <material id="ID1" name="DefaultMaterial">
      <instance_effect url="#ID0" />
    </material>
    <material id="mat_ID4" name="grey">
      <instance_effect url="#ID3" />
    </material>
    <material id="mat_ID6" name="grass">
      <instance_effect url="#ID5" />
    </material>
    <material id="mat_ID8" name="road">
      <instance_effect url="#ID7" />
    </material>
  </library_materials>
  <library_effects>
    <effect id="ID0">
      <profile_COMMON>
        <technique sid="COMMON">
          <phong>
            <emission>
              <color sid="emission">0.000000 0.000000 0.000000 1.000000</color>
            </emission>
            <ambient>
              <color sid="ambient">0.000000 0.000000 0.000000 1.000000</color>
            </ambient>
            <diffuse>
              <color sid="diffuse">0.500000 0.500000 0.500000 1.000000</color>
            </diffuse>
            <specular>
              <color sid="specular">0.500000 0.500000 0.500000 1.000000</color>
            </specular>
            <shininess>
              <float>50</float>
            </shininess>
            <index_of_refraction>
              <float>1</float>
            </index_of_refraction>
          </phong>
        </technique>
      </profile_COMMON>
    </effect>
    <effect id="ID3">
      <profile_COMMON>
        <technique sid="COMMON">
          <phong>
            <emission>
              <color sid="emission">0.000000 0.000000 0.000000 1.000000</color>
            </emission>
            <ambient>
              <color sid="ambient">0.000000 0.000000 0.000000 1.000000</color>
            </ambient>
            <diffuse>
              <color sid="diffuse">0.945098 0.949020 0.964706 1.000000</color>
            </diffuse>
            <specular>
              <color sid="specular">0.500000 0.500000 0.500000 1.000000</color>
            </specular>
            <shininess>
              <float>50</float>
            </shininess>
            <index_of_refraction>
              <float>1</float>
            </index_of_refraction>
          </phong>
        </technique>
      </profile_COMMON>
    </effect>
    <effect id="ID5">
      <profile_COMMON>
        <technique sid="COMMON">
          <phong>
            <emission>
              <color sid="emission">0.000000 0.000000 0.000000 1.000000</color>
            </emission>
            <ambient>
              <color sid="ambient">0.000000 0.000000 0.000000 1.000000</color>
            </ambient>
            <diffuse>
              <color sid="diffuse">0.301961 0.560784 0.431373 1.000000</color>
            </diffuse>
            <specular>
              <color sid="specular">0.500000 0.500000 0.500000 1.000000</color>
            </specular>
            <shininess>
              <float>50</float>
            </shininess>
            <index_of_refraction>
              <float>1</float>
            </index_of_refraction>
          </phong>
        </technique>
      </profile_COMMON>
    </effect>
    <effect id="ID7">
      <profile_COMMON>
        <technique sid="COMMON">
          <phong>
            <emission>
              <color sid="emission">0.000000 0.000000 0.000000 1.000000</color>
            </emission>
            <ambient>
              <color sid="ambient">0.000000 0.000000 0.000000 1.000000</color>
            </ambient>
            <diffuse>
              <color sid="diffuse">0.266667 0.266667 0.266667 1.000000</color>
            </diffuse>
            <specular>
              <color sid="specular">0.500000 0.500000 0.500000 1.000000</color>
            </specular>
            <shininess>
              <float>50</float>
            </shininess>
            <index_of_refraction>
              <float>1</float>
            </index_of_refraction>
          </phong>
        </technique>
      </profile_COMMON>
    </effect>
  </library_effects>
  <library_geometries>
    <geometry id="ID9">
      <mesh>
        <source id="ID10">
          <float_array id="ID11" count="192">0.845135 0.020000 0.000000 0.845135 0.010000 0.000000 1.845135 0.020000 2.000000 1.845135 0.010000 2.000000 0.918347 0.000000 0.000000 0.918347 0.020000 0.000000 1.918347 0.000000 2.000000 1.918347 0.020000 2.000000 0.845135 0.020000 0.000000 1.845135 0.020000 2.000000 0.918347 0.020000 0.000000 1.918347 0.020000 2.000000 0.845135 0.010000 1.380540 0.845135 0.020000 1.380540 1.154865 0.010000 2.000000 1.154865 0.020000 2.000000 0.918347 0.020000 1.673390 0.918347 0.000000 1.673390 1.081653 0.020000 2.000000 1.081653 0.000000 2.000000 0.918347 0.000000 1.673390 0.918347 0.020000 1.673390 0.918347 0.000000 2.000000 0.918347 0.020000 2.000000 0.081653 0.020000 0.000000 0.081653 0.020000 2.000000 0.154865 0.020000 0.000000 0.154865 0.020000 2.000000 0.081653 0.020000 0.000000 0.081653 0.000000 0.000000 0.081653 0.020000 2.000000 0.081653 0.000000 2.000000 0.154865 0.010000 0.000000 0.154865 0.020000 0.000000 0.154865 0.010000 2.000000 0.154865 0.020000 2.000000 0.845135 0.020000 1.380540 0.845135 0.010000 1.380540 0.845135 0.020000 2.000000 0.845135 0.010000 2.000000 0.845135 0.020000 2.000000 0.918347 0.020000 1.673390 0.845135 0.020000 1.380540 1.154865 0.020000 2.000000 1.081653 0.020000 2.000000 0.918347 0.020000 2.000000 0.918347 0.000000 0.000000 1.918347 0.000000 2.000000 1.000000 0.000000 0.000000 2.000000 0.000000 2.000000 0.000000 0.000000 0.000000 0.000000 0.000000 2.000000 0.081653 0.000000 0.000000 0.081653 0.000000 2.000000 0.918347 0.000000 1.673390 0.918347 0.000000 2.000000 1.081653 0.000000 2.000000 0.845135 0.010000 0.000000 0.845135 0.010000 1.380540 1.845135 0.010000 2.000000 1.154865 0.010000 2.000000 0.845135 0.010000 2.000000 0.154865 0.010000 2.000000 0.154865 0.010000 0.000000</float_array>
          <technique_common>
            <accessor count="64" source="#ID11" stride="3">
              <param name="X" type="float" />
              <param name="Y" type="float" />
              <param name="Z" type="float" />
            </accessor>
          </technique_common>
        </source>
        <source id="ID12">
          <float_array id="ID13" count="192">-0.894427 0.000000 0.447214 -0.894427 0.000000 0.447214 -0.894427 0.000000 0.447214 -0.894427 0.000000 0.447214 0.894427 0.000000 -0.447214 0.894427 0.000000 -0.447214 0.894427 0.000000 -0.447214 0.894427 0.000000 -0.447214 0.000000 1.000000 0.000000 0.000000 1.000000 0.000000 0.000000 1.000000 0.000000 0.000000 1.000000 0.000000 0.894427 0.000000 -0.447214 0.894427 0.000000 -0.447214 0.894427 0.000000 -0.447214 0.894427 0.000000 -0.447214 -0.894427 0.000000 0.447214 -0.894427 0.000000 0.447214 -0.894427 0.000000 0.447214 -0.894427 0.000000 0.447214 1.000000 0.000000 0.000000 1.000000 0.000000 0.000000 1.000000 0.000000 0.000000 1.000000 0.000000 0.000000 0.000000 1.000000 0.000000 0.000000 1.000000 0.000000 0.000000 1.000000 0.000000 0.000000 1.000000 0.000000 -1.000000 0.000000 0.000000 -1.000000 0.000000 0.000000 -1.000000 0.000000 0.000000 -1.000000 0.000000 0.000000 1.000000 0.000000 0.000000 1.000000 0.000000 0.000000 1.000000 0.000000 0.000000 1.000000 0.000000 0.000000 -1.000000 0.000000 0.000000 -1.000000 0.000000 0.000000 -1.000000 0.000000 0.000000 -1.000000 0.000000 0.000000 0.000000 1.000000 0.000000 0.000000 1.000000 0.000000 0.000000 1.000000 0.000000 0.000000 1.000000 0.000000 0.000000 1.000000 0.000000 0.000000 1.000000 0.000000 0.000000 1.000000 0.000000 0.000000 1.000000 0.000000 0.000000 1.000000 0.000000 0.000000 1.000000 0.000000 0.000000 1.000000 0.000000 0.000000 1.000000 0.000000 0.000000 1.000000 0.000000 0.000000 1.000000 0.000000 0.000000 1.000000 0.000000 0.000000 1.000000 0.000000 0.000000 1.000000 0.000000 0.000000 1.000000 0.000000 0.000000 1.000000 0.000000 0.000000 1.000000 0.000000 0.000000 1.000000 0.000000 0.000000 1.000000 0.000000 0.000000 1.000000 0.000000 0.000000 1.000000 0.000000</float_array>
          <technique_common>
            <accessor count="64" source="#ID13" stride="3">
              <param name="X" type="float" />
              <param name="Y" type="float" />
              <param name="Z" type="float" />
            </accessor>
          </technique_common>
        </source>
        <source id="ID14">
          <float_array id="ID15" count="128">-14.880154 0.787402 -14.880154 0.393701 -102.914330 0.787402 -102.914330 0.393701 16.169189 0.000000 16.169189 0.787402 104.203362 0.000000 104.203362 0.787402 33.273037 0.000000 72.643112 78.740158 36.155407 0.000000 75.525490 78.740158 63.494045 0.393701 63.494045 0.787402 90.760857 0.393701 90.760857 0.787402 -75.095375 0.787402 -75.095375 0.000000 -89.471817 0.787402 -89.471817 0.000000 65.881477 0.000000 65.881477 0.787402 78.740158 0.000000 78.740158 0.787402 3.214670 0.000000 3.214670 78.740158 6.097044 0.000000 6.097044 78.740158 0.000000 0.787402 0.000000 0.000000 -78.740158 0.787402 -78.740158 0.000000 0.000000 0.393701 0.000000 0.787402 78.740158 0.393701 78.740158 0.787402 -54.351982 0.787402 -54.351982 0.393701 -78.740158 0.787402 -78.740158 0.393701 33.273037 78.740158 36.155407 65.881477 33.273037 54.351982 45.467121 78.740158 42.584747 78.740158 36.155407 78.740158 36.155407 0.000000 75.525490 78.740158 39.370079 0.000000 78.740158 78.740158 0.000000 0.000000 0.000000 78.740158 3.214670 0.000000 3.214670 78.740158 36.155407 65.881477 36.155407 78.740158 42.584747 78.740158 33.273037 0.000000 33.273037 54.351982 72.643112 78.740158 45.467121 78.740158 33.273037 78.740158 6.097044 78.740158 6.097044 0.000000</float_array>
          <technique_common>
            <accessor count="64" source="#ID15" stride="2">
              <param name="X" type="float" />
              <param name="Y" type="float" />
            </accessor>
          </technique_common>
        </source>
        <vertices id="ID16">
          <input semantic="POSITION" source="#ID10" />
        </vertices>
        <triangles count="24" material="mat_ID4">
          <input offset="0" semantic="VERTEX" source="#ID16" />
          <input offset="1" semantic="NORMAL" source="#ID12" />
          <input offset="2" semantic="TEXCOORD" source="#ID14" />
          <p>0 0 0 1 1 1 2 2 2 3 3 3 2 2 2 1 1 1 4 4 4 5 5 5 6 6 6 7 7 7 6 6 6 5 5 5 8 8 8 9 9 9 10 10 10 11 11 11 10 10 10 9 9 9 12 12 12 13 13 13 14 14 14 15 15 15 14 14 14 13 13 13 16 16 16 17 17 17 18 18 18 19 19 19 18 18 18 17 17 17 20 20 20 21 21 21 22 22 22 23 23 23 22 22 22 21 21 21 24 24 24 25 25 25 26 26 26 27 27 27 26 26 26 25 25 25 28 28 28 29 29 29 30 30 30 31 31 31 30 30 30 29 29 29 32 32 32 33 33 33 34 34 34 35 35 35 34 34 34 33 33 33 36 36 36 37 37 37 38 38 38 39 39 39 38 38 38 37 37 37 40 40 40 41 41 41 42 42 42 43 43 43 42 42 42 41 41 41 44 44 44 43 43 43 41 41 41 41 41 41 40 40 40 45 45 45 </p>
        </triangles>
        <triangles count="5" material="mat_ID6">
          <input offset="0" semantic="VERTEX" source="#ID16" />
          <input offset="1" semantic="NORMAL" source="#ID12" />
          <input offset="2" semantic="TEXCOORD" source="#ID14" />
          <p>46 46 46 47 47 47 48 48 48 49 49 49 48 48 48 47 47 47 50 50 50 51 51 51 52 52 52 53 53 53 52 52 52 51 51 51 54 54 54 55 55 55 56 56 56 </p>
        </triangles>
        <triangles count="5" material="mat_ID8">
          <input offset="0" semantic="VERTEX" source="#ID16" />
          <input offset="1" semantic="NORMAL" source="#ID12" />
          <input offset="2" semantic="TEXCOORD" source="#ID14" />
          <p>57 57 57 58 58 58 59 59 59 60 60 60 59 59 59 58 58 58 58 58 58 57 57 57 61 61 61 61 61 61 57 57 57 62 62 62 63 63 63 62 62 62 57 57 57 </p>
        </triangles>
      </mesh>
    </geometry>
  </library_geometries>
  <library_visual_scenes>
    <visual_scene id="ID2">
      <node id="ID17" name="roadPitEntry">
        <matrix>1.000000 0.000000 0.000000 0.000000 0.000000 1.000000 0.000000 0.000000 0.000000 0.000000 -1.000000 0.000000 0.000000 0.000000 0.000000 1.000000</matrix>
        <instance_geometry url="#ID9">
          <bind_material>
            <technique_common>
              <instance_material symbol="mat_ID4" target="#mat_ID4" />
              <instance_material symbol="mat_ID6" target="#mat_ID6" />
              <instance_material symbol="mat_ID8" target="#mat_ID8" />
            </technique_common>
          </bind_material>
        </instance_geometry>
      </node>
    </visual_scene>
  </library_visual_scenes>
  <scene>
    <instance_visual_scene url="#ID2" />
  </scene>
</COLLADA>
